{
  "authHost": "http://api",
  "authEndpoint": "/broadcasting/auth",
  "clients": [],
  "database": "redis",
  "databaseConfig": {
    "redis": {
      "port": "6379",
      "host": "redis"
    },
    "sqlite": {
      "databasePath": "/database/laravel-echo-server.sqlite"
    }
  },
  "devMode": true,
  "host": null,
  "port": "6001",
  "protocol": "http",
  "socketio": {},
  "sslCertPath": "",
  "sslKeyPath": "",
  "sslCertChainPath": "",
  "sslPassphrase": "",
  "apiOriginAllow": {
    "allowCors": true,
    "allowOrigin": "http://localhost:3000",
    "allowMethods": "GET, POST",
    "allowHeaders": "Origin, Content-Type, X-Auth-Token, X-Requested-With, Accept, Authorization, X-CSRF-TOKEN, X-Socket-Id"
  }
}